-------------------------------------------------------------------------------
Test set: br.edu.iftm.upt.ads.daw2.controle.teste.AssumptionsTest
-------------------------------------------------------------------------------
Tests run: 4, Failures: 0, Errors: 0, Skipped: 0, Time elapsed: 0.013 sec
