/home/aluno/NetBeansProjects/teste/src/main/java/br/edu/iftm/upt/ads/daw2/controle/teste/Main.java
/home/aluno/NetBeansProjects/teste/src/main/java/br/edu/iftm/upt/ads/daw2/controle/teste/ClasseUpperCase.java
/home/aluno/NetBeansProjects/teste/src/main/java/br/edu/iftm/upt/ads/daw2/controle/teste/User.java
